Homework 4
…
What are the two main differences between a tibble and a data.frame?

A data.frame is a BaseR structure. A tibble is tidyverse structure that is like a dataframe, but has more complaining and more limitations.

Rewrite the following nested function call, using BaseR’s chaining operator:

arrange(filter(select(as_tibble(iris), starts_with("Petal"), Species), Petal.Length < 1.55), Species)

iris |>
  as_tibble() |>
  select(starts_with("Petal"), Species) |>
  filter(Petal.Length < 1.55) |>
  arrange(Species)

# A tibble: 37 × 3
   Petal.Length Petal.Width Species
          <dbl>       <dbl> <fct>  
 1          1.4         0.2 setosa 
 2          1.4         0.2 setosa 
 3          1.3         0.2 setosa 
 4          1.5         0.2 setosa 
 5          1.4         0.2 setosa 
 6          1.4         0.3 setosa 
 7          1.5         0.2 setosa 
 8          1.4         0.2 setosa 
 9          1.5         0.1 setosa 
10          1.5         0.2 setosa 
# ℹ 27 more rows

Task 2: Reading Delimited Data

Glass Data

Read in the csv file, adding the given column names.

# glass_data <- read_csv("../data/hw4/glass.data", col_names = c("Id", "RI", "Na", "Mg", "Al", "Si", "K", "Ca", "Ba", "Fe"))
glass_data <- read_csv("https://www4.stat.ncsu.edu/~online/datasets/glass.data", col_names = c("Id", "RI", "Na", "Mg", "Al", "Si", "K", "Ca", "Ba", "Fe", "Type"), show_col_types = FALSE)
glass_data

# A tibble: 214 × 11
      Id    RI    Na    Mg    Al    Si     K    Ca    Ba    Fe  Type
   <dbl> <dbl> <dbl> <dbl> <dbl> <dbl> <dbl> <dbl> <dbl> <dbl> <dbl>
 1     1  1.52  13.6  4.49  1.1   71.8  0.06  8.75     0  0        1
 2     2  1.52  13.9  3.6   1.36  72.7  0.48  7.83     0  0        1
 3     3  1.52  13.5  3.55  1.54  73.0  0.39  7.78     0  0        1
 4     4  1.52  13.2  3.69  1.29  72.6  0.57  8.22     0  0        1
 5     5  1.52  13.3  3.62  1.24  73.1  0.55  8.07     0  0        1
 6     6  1.52  12.8  3.61  1.62  73.0  0.64  8.07     0  0.26     1
 7     7  1.52  13.3  3.6   1.14  73.1  0.58  8.17     0  0        1
 8     8  1.52  13.2  3.61  1.05  73.2  0.57  8.24     0  0        1
 9     9  1.52  14.0  3.58  1.37  72.1  0.56  8.3      0  0        1
10    10  1.52  13    3.6   1.36  73.0  0.57  8.4      0  0.11     1
# ℹ 204 more rows
…
glass_data_updated <- glass_data |>
  mutate(Type = case_when(
    Type == 1 ~ "building_windows_float_processed",
    Type == 2 ~ "building_windows_non_float_processed",
    Type == 3 ~ "vehicle_windows_float_processed",
    Type == 4 ~ "vehicle_windows_non_float_processed",
    Type == 5 ~ "containers",
    Type == 6 ~ "tableware",
    Type == 7 ~ "headlamps"
  )) |>
  filter(Fe < 0.2, Type %in% c("tableware", "headlamps"))
glass_data_updated

# A tibble: 38 × 11
      Id    RI    Na    Mg    Al    Si     K    Ca    Ba    Fe Type     
   <dbl> <dbl> <dbl> <dbl> <dbl> <dbl> <dbl> <dbl> <dbl> <dbl> <chr>    
 1   177  1.52  14    2.39  1.56  72.4  0     9.57  0        0 tableware
 2   178  1.52  13.8  2.41  1.19  72.8  0     9.77  0        0 tableware
 3   179  1.52  14.5  2.24  1.62  72.4  0     9.26  0        0 tableware
 4   180  1.52  14.1  2.19  1.66  72.7  0     9.32  0        0 tableware
 5   181  1.51  14.4  1.74  1.54  74.6  0     7.59  0        0 tableware
 6   182  1.52  15.0  0.78  1.74  72.5  0     9.95  0        0 tableware
 7   183  1.52  14.2  0     2.09  72.7  0    10.9   0        0 tableware
 8   184  1.52  14.6  0     0.56  73.5  0    11.2   0        0 tableware
 9   185  1.51  17.4  0     0.34  75.4  0     6.65  0        0 tableware
10   186  1.51  13.7  3.2   1.81  72.8  1.76  5.43  1.19     0 headlamps
# ℹ 28 more rows

Yeast Data

Read in the fixed width file, adding given column names.

# yeast_data <- read_fwf("../data/hw4/yeast.data", fwf_widths(c(12,6,6,6,6,6,6,6,6,6), c("seq_nam", "mcg", "gvh", "alm", "mit", "erl", "pox", "vac", "nuc", "class")))
yeast_data <- read_fwf("https://www4.stat.ncsu.edu/~online/datasets/yeast.data", fwf_widths(c(12,6,6,6,6,6,6,6,6,6), c("seq_nam", "mcg", "gvh", "alm", "mit", "erl", "pox", "vac", "nuc", "class")), show_col_types = FALSE)
yeast_data

# A tibble: 1,484 × 10
   seq_nam      mcg   gvh   alm   mit   erl   pox   vac   nuc class
   <chr>      <dbl> <dbl> <dbl> <dbl> <dbl> <dbl> <dbl> <dbl> <chr>
 1 ADT1_YEAST  0.58  0.61  0.47  0.13   0.5   0    0.48  0.22 MIT  
 2 ADT2_YEAST  0.43  0.67  0.48  0.27   0.5   0    0.53  0.22 MIT  
 3 ADT3_YEAST  0.64  0.62  0.49  0.15   0.5   0    0.53  0.22 MIT  
 4 AAR2_YEAST  0.58  0.44  0.57  0.13   0.5   0    0.54  0.22 NUC  
 5 AATM_YEAST  0.42  0.44  0.48  0.54   0.5   0    0.48  0.22 MIT  
 6 AATC_YEAST  0.51  0.4   0.56  0.17   0.5   0.5  0.49  0.22 CYT  
 7 ABC1_YEAST  0.5   0.54  0.48  0.65   0.5   0    0.53  0.22 MIT  
 8 BAF1_YEAST  0.48  0.45  0.59  0.2    0.5   0    0.58  0.34 NUC  
 9 ABF2_YEAST  0.55  0.5   0.66  0.36   0.5   0    0.49  0.22 MIT  
10 ABP1_YEAST  0.4   0.39  0.6   0.15   0.5   0    0.58  0.3  CYT  
# ℹ 1,474 more rows

Chain update the yeast_data.

yeast_data_updated <- yeast_data |>
  select(-seq_nam & -nuc) |>
  group_by(class) |>
  mutate(across(where(is.numeric), list(mean=mean, median=median), .names = "{.col}_{.fn}"))
yeast_data_updated

# A tibble: 1,484 × 22
# Groups:   class [10]
     mcg   gvh   alm   mit   erl   pox   vac class mcg_mean mcg_median gvh_mean
   <dbl> <dbl> <dbl> <dbl> <dbl> <dbl> <dbl> <chr>    <dbl>      <dbl>    <dbl>
 1  0.58  0.61  0.47  0.13   0.5   0    0.48 MIT      0.521       0.51    0.533
 2  0.43  0.67  0.48  0.27   0.5   0    0.53 MIT      0.521       0.51    0.533
 3  0.64  0.62  0.49  0.15   0.5   0    0.53 MIT      0.521       0.51    0.533
 4  0.58  0.44  0.57  0.13   0.5   0    0.54 NUC      0.452       0.45    0.456
 5  0.42  0.44  0.48  0.54   0.5   0    0.48 MIT      0.521       0.51    0.533
 6  0.51  0.4   0.56  0.17   0.5   0.5  0.49 CYT      0.481       0.48    0.470
 7  0.5   0.54  0.48  0.65   0.5   0    0.53 MIT      0.521       0.51    0.533
 8  0.48  0.45  0.59  0.2    0.5   0    0.58 NUC      0.452       0.45    0.456
 9  0.55  0.5   0.66  0.36   0.5   0    0.49 MIT      0.521       0.51    0.533
10  0.4   0.39  0.6   0.15   0.5   0    0.58 CYT      0.481       0.48    0.470
# ℹ 1,474 more rows
# ℹ 11 more variables: gvh_median <dbl>, alm_mean <dbl>, alm_median <dbl>,
#   mit_mean <dbl>, mit_median <dbl>, erl_mean <dbl>, erl_median <dbl>,
#   pox_mean <dbl>, pox_median <dbl>, vac_mean <dbl>, vac_median <dbl>

Task 3: Combining Excel and Delimited Data

Read in the excel first sheet for white wine.

white_wine_data <- read_excel("../data/hw4/white-wine.xlsx", sheet = 1)
white_wine_data

# A tibble: 4,898 × 12
   `fixed acidity` `volatile acidity` `citric acid` `residual sugar` chlorides
             <dbl>              <dbl>         <dbl>            <dbl>     <dbl>
 1               7               0.27          0.36             20.7     0.045
 2              63               0.3           0.34              1.6     0.049
 3              81               0.28          0.4               6.9     0.05 
 4              72               0.23          0.32              8.5     0.058
 5              72               0.23          0.32              8.5     0.058
 6              81               0.28          0.4               6.9     0.05 
 7              62               0.32          0.16              7       0.045
 8               7               0.27          0.36             20.7     0.045
 9              63               0.3           0.34              1.6     0.049
10              81               0.22          0.43              1.5     0.044
# ℹ 4,888 more rows
# ℹ 7 more variables: `free sulfur dioxide` <dbl>,
#   `total sulfur dioxide` <dbl>, density <dbl>, pH <dbl>, sulphates <dbl>,
#   alcohol <dbl>, quality <dbl>

Fix the column names from the second sheet.

col_names <- read_excel("../data/hw4/white-wine.xlsx", sheet = 2) |> pull()
colnames(white_wine_data) <- col_names
white_wine_data

# A tibble: 4,898 × 12
   fixed_acidity volatile_acidity citric_acid residual_sugar chlorides
           <dbl>            <dbl>       <dbl>          <dbl>     <dbl>
 1             7             0.27        0.36           20.7     0.045
 2            63             0.3         0.34            1.6     0.049
 3            81             0.28        0.4             6.9     0.05 
 4            72             0.23        0.32            8.5     0.058
 5            72             0.23        0.32            8.5     0.058
 6            81             0.28        0.4             6.9     0.05 
 7            62             0.32        0.16            7       0.045
 8             7             0.27        0.36           20.7     0.045
 9            63             0.3         0.34            1.6     0.049
10            81             0.22        0.43            1.5     0.044
# ℹ 4,888 more rows
# ℹ 7 more variables: free_sulfur_dioxide <dbl>, total_sulfur_dioxide <dbl>,
#   density <dbl>, pH <dbl>, sulphates <dbl>, alcohol <dbl>, quality <dbl>

Add white column.

white_wine_data$wine_type <- "white"

Read in delimited data for red wine.

red_wine_data <- readr::read_delim("../data/hw4/red-wine.csv", delim=';', show_col_types = FALSE)
red_wine_data

# A tibble: 1,599 × 12
   `fixed acidity` `volatile acidity` `citric acid` `residual sugar` chlorides
             <dbl>              <dbl>         <dbl>            <dbl>     <dbl>
 1             7.4               0.7           0                 1.9     0.076
 2             7.8               0.88          0                 2.6     0.098
 3             7.8               0.76          0.04              2.3     0.092
 4            11.2               0.28          0.56              1.9     0.075
 5             7.4               0.7           0                 1.9     0.076
 6             7.4               0.66          0                 1.8     0.075
 7             7.9               0.6           0.06              1.6     0.069
 8             7.3               0.65          0                 1.2     0.065
 9             7.8               0.58          0.02              2       0.073
10             7.5               0.5           0.36              6.1     0.071
# ℹ 1,589 more rows
# ℹ 7 more variables: `free sulfur dioxide` <dbl>,
#   `total sulfur dioxide` <dbl>, density <dbl>, pH <dbl>, sulphates <dbl>,
#   alcohol <dbl>, quality <dbl>

Update the column names and add the red column.

colnames(red_wine_data) <- col_names
red_wine_data$wine_type <- "red"
red_wine_data

# A tibble: 1,599 × 13
   fixed_acidity volatile_acidity citric_acid residual_sugar chlorides
           <dbl>            <dbl>       <dbl>          <dbl>     <dbl>
 1           7.4             0.7         0               1.9     0.076
 2           7.8             0.88        0               2.6     0.098
 3           7.8             0.76        0.04            2.3     0.092
 4          11.2             0.28        0.56            1.9     0.075
 5           7.4             0.7         0               1.9     0.076
 6           7.4             0.66        0               1.8     0.075
 7           7.9             0.6         0.06            1.6     0.069
 8           7.3             0.65        0               1.2     0.065
 9           7.8             0.58        0.02            2       0.073
10           7.5             0.5         0.36            6.1     0.071
# ℹ 1,589 more rows
# ℹ 8 more variables: free_sulfur_dioxide <dbl>, total_sulfur_dioxide <dbl>,
#   density <dbl>, pH <dbl>, sulphates <dbl>, alcohol <dbl>, quality <dbl>,
#   wine_type <chr>

Combine the datasets into one wine dataset.

wine_data <- dplyr::bind_rows(white_wine_data, red_wine_data)
wine_data

# A tibble: 6,497 × 13
   fixed_acidity volatile_acidity citric_acid residual_sugar chlorides
           <dbl>            <dbl>       <dbl>          <dbl>     <dbl>
 1             7             0.27        0.36           20.7     0.045
 2            63             0.3         0.34            1.6     0.049
 3            81             0.28        0.4             6.9     0.05 
 4            72             0.23        0.32            8.5     0.058
 5            72             0.23        0.32            8.5     0.058
 6            81             0.28        0.4             6.9     0.05 
 7            62             0.32        0.16            7       0.045
 8             7             0.27        0.36           20.7     0.045
 9            63             0.3         0.34            1.6     0.049
10            81             0.22        0.43            1.5     0.044
# ℹ 6,487 more rows
# ℹ 8 more variables: free_sulfur_dioxide <dbl>, total_sulfur_dioxide <dbl>,
#   density <dbl>, pH <dbl>, sulphates <dbl>, alcohol <dbl>, quality <dbl>,
#   wine_type <chr>

Chain update new wine data.

wine_data_updated <- wine_data |>
  filter(quality > 6.5, alcohol < 132) |>
  arrange(desc(quality)) |>
  select(contains("acid"), alcohol, wine_type, quality) |>
  group_by(quality) |>
  mutate(across(where(is.numeric), list(mean=mean, stdev=sd), .names = "{.col}_{.fn}"))
wine_data_updated

# A tibble: 1,206 × 14
# Groups:   quality [3]
   fixed_acidity volatile_acidity citric_acid alcohol wine_type quality
           <dbl>            <dbl>       <dbl>   <dbl> <chr>       <dbl>
 1            91             0.27        0.45     104 white           9
 2            66             0.36        0.29     124 white           9
 3            74             0.24        0.36     125 white           9
 4            69             0.36        0.34     127 white           9
 5            71             0.26        0.49     129 white           9
 6            62             0.66        0.48     128 white           8
 7            62             0.66        0.48     128 white           8
 8            68             0.26        0.42     105 white           8
 9            67             0.23        0.31     107 white           8
10            67             0.23        0.31     107 white           8
# ℹ 1,196 more rows
# ℹ 8 more variables: fixed_acidity_mean <dbl>, fixed_acidity_stdev <dbl>,
#   volatile_acidity_mean <dbl>, volatile_acidity_stdev <dbl>,
#   citric_acid_mean <dbl>, citric_acid_stdev <dbl>, alcohol_mean <dbl>,
#   alcohol_stdev <dbl>
